-- Merging decision tree log ---
manifest
ADDED from E:\New folder (3)\VisitBangladesh\app\src\main\AndroidManifest.xml:2:1-86:12
	package
		ADDED from E:\New folder (3)\VisitBangladesh\app\src\main\AndroidManifest.xml:3:5-42
		INJECTED from E:\New folder (3)\VisitBangladesh\app\src\main\AndroidManifest.xml
		INJECTED from E:\New folder (3)\VisitBangladesh\app\src\main\AndroidManifest.xml
	android:versionName
		ADDED from E:\New folder (3)\VisitBangladesh\app\src\main\AndroidManifest.xml:5:5-30
		INJECTED from E:\New folder (3)\VisitBangladesh\app\src\main\AndroidManifest.xml
		INJECTED from E:\New folder (3)\VisitBangladesh\app\src\main\AndroidManifest.xml
	android:versionCode
		ADDED from E:\New folder (3)\VisitBangladesh\app\src\main\AndroidManifest.xml:4:5-28
		INJECTED from E:\New folder (3)\VisitBangladesh\app\src\main\AndroidManifest.xml
		INJECTED from E:\New folder (3)\VisitBangladesh\app\src\main\AndroidManifest.xml
	xmlns:android
		ADDED from E:\New folder (3)\VisitBangladesh\app\src\main\AndroidManifest.xml:2:11-69
uses-permission#android.permission.ACCESS_COARSE_LOCATION
ADDED from E:\New folder (3)\VisitBangladesh\app\src\main\AndroidManifest.xml:7:5-81
	android:name
		ADDED from E:\New folder (3)\VisitBangladesh\app\src\main\AndroidManifest.xml:7:22-78
uses-permission#android.permission.ACCESS_FINE_LOCATION
ADDED from E:\New folder (3)\VisitBangladesh\app\src\main\AndroidManifest.xml:8:5-79
	android:name
		ADDED from E:\New folder (3)\VisitBangladesh\app\src\main\AndroidManifest.xml:8:22-76
uses-permission#android.permission.INTERNET
ADDED from E:\New folder (3)\VisitBangladesh\app\src\main\AndroidManifest.xml:9:5-67
	android:name
		ADDED from E:\New folder (3)\VisitBangladesh\app\src\main\AndroidManifest.xml:9:22-64
uses-permission#android.permission.CALL_PHONE
ADDED from E:\New folder (3)\VisitBangladesh\app\src\main\AndroidManifest.xml:10:5-69
	android:name
		ADDED from E:\New folder (3)\VisitBangladesh\app\src\main\AndroidManifest.xml:10:22-66
uses-permission#android.permission.SEND_SMS
ADDED from E:\New folder (3)\VisitBangladesh\app\src\main\AndroidManifest.xml:11:5-67
	android:name
		ADDED from E:\New folder (3)\VisitBangladesh\app\src\main\AndroidManifest.xml:11:22-64
uses-permission#android.permission.RECEIVE_SMS
ADDED from E:\New folder (3)\VisitBangladesh\app\src\main\AndroidManifest.xml:12:5-70
	android:name
		ADDED from E:\New folder (3)\VisitBangladesh\app\src\main\AndroidManifest.xml:12:22-67
uses-sdk
ADDED from E:\New folder (3)\VisitBangladesh\app\src\main\AndroidManifest.xml:14:5-16:41
MERGED from [com.android.support:appcompat-v7:19.1.0] E:\New folder (3)\VisitBangladesh\app\build\intermediates\exploded-aar\com.android.support\appcompat-v7\19.1.0\AndroidManifest.xml:18:5-42
	android:targetSdkVersion
		ADDED from E:\New folder (3)\VisitBangladesh\app\src\main\AndroidManifest.xml:16:9-38
		INJECTED from E:\New folder (3)\VisitBangladesh\app\src\main\AndroidManifest.xml
		INJECTED from E:\New folder (3)\VisitBangladesh\app\src\main\AndroidManifest.xml
	android:minSdkVersion
		ADDED from E:\New folder (3)\VisitBangladesh\app\src\main\AndroidManifest.xml:15:9-34
		INJECTED from E:\New folder (3)\VisitBangladesh\app\src\main\AndroidManifest.xml
		INJECTED from E:\New folder (3)\VisitBangladesh\app\src\main\AndroidManifest.xml
application
ADDED from E:\New folder (3)\VisitBangladesh\app\src\main\AndroidManifest.xml:18:5-84:19
MERGED from [com.android.support:appcompat-v7:19.1.0] E:\New folder (3)\VisitBangladesh\app\build\intermediates\exploded-aar\com.android.support\appcompat-v7\19.1.0\AndroidManifest.xml:19:5-20
	android:label
		ADDED from E:\New folder (3)\VisitBangladesh\app\src\main\AndroidManifest.xml:21:9-41
	android:allowBackup
		ADDED from E:\New folder (3)\VisitBangladesh\app\src\main\AndroidManifest.xml:19:9-35
	android:icon
		ADDED from E:\New folder (3)\VisitBangladesh\app\src\main\AndroidManifest.xml:20:9-45
	android:theme
		ADDED from E:\New folder (3)\VisitBangladesh\app\src\main\AndroidManifest.xml:22:9-40
activity#com.example.visitbangladesh.MainActivity
ADDED from E:\New folder (3)\VisitBangladesh\app\src\main\AndroidManifest.xml:23:9-26:20
	android:label
		ADDED from E:\New folder (3)\VisitBangladesh\app\src\main\AndroidManifest.xml:25:13-45
	android:name
		ADDED from E:\New folder (3)\VisitBangladesh\app\src\main\AndroidManifest.xml:24:13-41
activity#com.example.visitbangladesh.ReviewActivity
ADDED from E:\New folder (3)\VisitBangladesh\app\src\main\AndroidManifest.xml:27:9-30:20
	android:label
		ADDED from E:\New folder (3)\VisitBangladesh\app\src\main\AndroidManifest.xml:29:13-63
	android:name
		ADDED from E:\New folder (3)\VisitBangladesh\app\src\main\AndroidManifest.xml:28:13-43
activity#com.example.visitbangladesh.InformationActivites
ADDED from E:\New folder (3)\VisitBangladesh\app\src\main\AndroidManifest.xml:31:9-34:20
	android:label
		ADDED from E:\New folder (3)\VisitBangladesh\app\src\main\AndroidManifest.xml:33:13-73
	android:name
		ADDED from E:\New folder (3)\VisitBangladesh\app\src\main\AndroidManifest.xml:32:13-49
activity#com.example.visitbangladesh.InfoActivity
ADDED from E:\New folder (3)\VisitBangladesh\app\src\main\AndroidManifest.xml:35:9-38:20
	android:label
		ADDED from E:\New folder (3)\VisitBangladesh\app\src\main\AndroidManifest.xml:37:13-56
	android:name
		ADDED from E:\New folder (3)\VisitBangladesh\app\src\main\AndroidManifest.xml:36:13-41
activity#com.example.visitbangladesh.InfooActivity
ADDED from E:\New folder (3)\VisitBangladesh\app\src\main\AndroidManifest.xml:39:9-42:20
	android:label
		ADDED from E:\New folder (3)\VisitBangladesh\app\src\main\AndroidManifest.xml:41:13-57
	android:name
		ADDED from E:\New folder (3)\VisitBangladesh\app\src\main\AndroidManifest.xml:40:13-42
activity#com.example.visitbangladesh.CtgActivity
ADDED from E:\New folder (3)\VisitBangladesh\app\src\main\AndroidManifest.xml:43:9-46:20
	android:label
		ADDED from E:\New folder (3)\VisitBangladesh\app\src\main\AndroidManifest.xml:45:13-55
	android:name
		ADDED from E:\New folder (3)\VisitBangladesh\app\src\main\AndroidManifest.xml:44:13-40
activity#com.example.visitbangladesh.Divitions
ADDED from E:\New folder (3)\VisitBangladesh\app\src\main\AndroidManifest.xml:47:9-50:20
	android:label
		ADDED from E:\New folder (3)\VisitBangladesh\app\src\main\AndroidManifest.xml:49:13-61
	android:name
		ADDED from E:\New folder (3)\VisitBangladesh\app\src\main\AndroidManifest.xml:48:13-38
activity#com.example.visitbangladesh.SaferoutA
ADDED from E:\New folder (3)\VisitBangladesh\app\src\main\AndroidManifest.xml:51:9-54:20
	android:label
		ADDED from E:\New folder (3)\VisitBangladesh\app\src\main\AndroidManifest.xml:53:13-60
	android:name
		ADDED from E:\New folder (3)\VisitBangladesh\app\src\main\AndroidManifest.xml:52:13-38
activity#com.example.visitbangladesh.Safeiss
ADDED from E:\New folder (3)\VisitBangladesh\app\src\main\AndroidManifest.xml:55:9-58:20
	android:label
		ADDED from E:\New folder (3)\VisitBangladesh\app\src\main\AndroidManifest.xml:57:13-59
	android:name
		ADDED from E:\New folder (3)\VisitBangladesh\app\src\main\AndroidManifest.xml:56:13-36
activity#com.example.visitbangladesh.TipsA
ADDED from E:\New folder (3)\VisitBangladesh\app\src\main\AndroidManifest.xml:59:9-62:20
	android:label
		ADDED from E:\New folder (3)\VisitBangladesh\app\src\main\AndroidManifest.xml:61:13-56
	android:name
		ADDED from E:\New folder (3)\VisitBangladesh\app\src\main\AndroidManifest.xml:60:13-34
activity#com.example.visitbangladesh.In_vihi
ADDED from E:\New folder (3)\VisitBangladesh\app\src\main\AndroidManifest.xml:63:9-66:20
	android:label
		ADDED from E:\New folder (3)\VisitBangladesh\app\src\main\AndroidManifest.xml:65:13-59
	android:name
		ADDED from E:\New folder (3)\VisitBangladesh\app\src\main\AndroidManifest.xml:64:13-36
activity#com.example.visitbangladesh.CurrencyEA
ADDED from E:\New folder (3)\VisitBangladesh\app\src\main\AndroidManifest.xml:67:9-70:20
	android:label
		ADDED from E:\New folder (3)\VisitBangladesh\app\src\main\AndroidManifest.xml:69:13-62
	android:name
		ADDED from E:\New folder (3)\VisitBangladesh\app\src\main\AndroidManifest.xml:68:13-39
activity#com.example.visitbangladesh.Home
ADDED from E:\New folder (3)\VisitBangladesh\app\src\main\AndroidManifest.xml:71:9-79:20
	android:label
		ADDED from E:\New folder (3)\VisitBangladesh\app\src\main\AndroidManifest.xml:73:13-56
	android:name
		ADDED from E:\New folder (3)\VisitBangladesh\app\src\main\AndroidManifest.xml:72:13-33
intent-filter#android.intent.action.MAIN+android.intent.category.LAUNCHER
ADDED from E:\New folder (3)\VisitBangladesh\app\src\main\AndroidManifest.xml:74:13-78:29
action#android.intent.action.MAIN
ADDED from E:\New folder (3)\VisitBangladesh\app\src\main\AndroidManifest.xml:75:17-69
	android:name
		ADDED from E:\New folder (3)\VisitBangladesh\app\src\main\AndroidManifest.xml:75:25-66
category#android.intent.category.LAUNCHER
ADDED from E:\New folder (3)\VisitBangladesh\app\src\main\AndroidManifest.xml:77:17-77
	android:name
		ADDED from E:\New folder (3)\VisitBangladesh\app\src\main\AndroidManifest.xml:77:27-74
activity#com.example.visitbangladesh.AbtBD
ADDED from E:\New folder (3)\VisitBangladesh\app\src\main\AndroidManifest.xml:80:9-83:20
	android:label
		ADDED from E:\New folder (3)\VisitBangladesh\app\src\main\AndroidManifest.xml:82:13-58
	android:name
		ADDED from E:\New folder (3)\VisitBangladesh\app\src\main\AndroidManifest.xml:81:13-34
